%YAML 1.1
%TAG !u! tag:unity3d.com,2011:
--- !u!1045 &1
EditorBuildSettings:
  m_ObjectHideFlags: 0
  serializedVersion: 2
  m_Scenes:
  - enabled: 1
    path: Assets/Scenes/FirstScene.unity
    guid: 07163a1315ce63848bf5b22d28be71b6
  - enabled: 1
    path: Assets/Scenes/MenuScene.unity
    guid: 25109a094dc790241a0225157ccd2672
  - enabled: 1
    path: Assets/Scenes/GarageScene.unity
    guid: 5d2316eb58a56434aae458aabe224d4e
  - enabled: 1
    path: Assets/Scenes/LoadScene.unity
    guid: a0a93b1ed19aa4547ad733dcc03916bb
  - enabled: 1
    path: Assets/Scenes/GameSceneTerrain.unity
    guid: f6f020f3b7536e745b9407160aaeeb01
  - enabled: 1
    path: Assets/Scenes/LootBoxScene.unity
    guid: 9071a30641c5f3746928b999a633f626
  m_configObjects: {}
