%YAML 1.1
%TAG !u! tag:unity3d.com,2011:
--- !u!114 &11400000
MonoBehaviour:
  m_ObjectHideFlags: 0
  m_CorrespondingSourceObject: {fileID: 0}
  m_PrefabInstance: {fileID: 0}
  m_PrefabAsset: {fileID: 0}
  m_GameObject: {fileID: 0}
  m_Enabled: 1
  m_EditorHideFlags: 0
  m_Script: {fileID: 11500000, guid: 74241e278c6cda2479cc102928130e5a, type: 3}
  m_Name: CarsInfo
  m_EditorClassIdentifier: 
  cars:
  - {fileID: 11400000, guid: d8d13044d86e25943bf11e3340a63975, type: 2}
  - {fileID: 11400000, guid: cb1603e3bec54dd4082d174a5b24c218, type: 2}
  - {fileID: 11400000, guid: 8aad19475f831314ab966768619891bb, type: 2}
  - {fileID: 11400000, guid: 4bb2712c758c378409616928748f41aa, type: 2}
  - {fileID: 11400000, guid: 205144bed5d8da346be4da4a367aa56e, type: 2}
  - {fileID: 11400000, guid: f3bd3e7de29a431478b22df34d74185a, type: 2}
  - {fileID: 11400000, guid: 997948a4c19b35e48add16c72b34f442, type: 2}
  - {fileID: 11400000, guid: 65056508570585b4e89b24b2e30686bc, type: 2}
  - {fileID: 11400000, guid: 2175250bc15de2042a652b6bed8caee2, type: 2}
  - {fileID: 11400000, guid: c3c4b27ba0054db48ba0c6420aeb16da, type: 2}
  - {fileID: 11400000, guid: 0b5025cbaa837af4ab832b2dabf68df2, type: 2}
  - {fileID: 11400000, guid: b2219cfdf7178f64cb28197d9d2a5922, type: 2}
  - {fileID: 11400000, guid: cf288afe3c9cc454b842ff1c63fa6213, type: 2}
  - {fileID: 11400000, guid: 271fd18a555333d4da5fc33f8ca3a449, type: 2}
  - {fileID: 11400000, guid: fc7c315e9290fb846a91991d8a0cc670, type: 2}
  - {fileID: 11400000, guid: 8a43b0e39c3383440ab997fede08b64a, type: 2}
  - {fileID: 11400000, guid: e840027d3f65efa4eb5bda774fc770c8, type: 2}
