%YAML 1.1
%TAG !u! tag:unity3d.com,2011:
--- !u!114 &11400000
MonoBehaviour:
  m_ObjectHideFlags: 0
  m_CorrespondingSourceObject: {fileID: 0}
  m_PrefabInstance: {fileID: 0}
  m_PrefabAsset: {fileID: 0}
  m_GameObject: {fileID: 0}
  m_Enabled: 1
  m_EditorHideFlags: 0
  m_Script: {fileID: 11500000, guid: 86466ba18f824e3fbc62e193fd44fcf2, type: 3}
  m_Name: Ferrari
  m_EditorClassIdentifier: 
  CarName: Ferrari
  CarNameString: Vanish
  CarSkins:
  - Blue
  - Green
  - Purple
  - Yellow
  - Red
  AvailableType: 1
  CarModel: {fileID: 100004, guid: 2711f590a2e1e374483b58603f190e2a, type: 3}
