%YAML 1.1
%TAG !u! tag:unity3d.com,2011:
--- !u!114 &11400000
MonoBehaviour:
  m_ObjectHideFlags: 0
  m_CorrespondingSourceObject: {fileID: 0}
  m_PrefabInstance: {fileID: 0}
  m_PrefabAsset: {fileID: 0}
  m_GameObject: {fileID: 0}
  m_Enabled: 1
  m_EditorHideFlags: 0
  m_Script: {fileID: 11500000, guid: 86466ba18f824e3fbc62e193fd44fcf2, type: 3}
  m_Name: Plumpy
  m_EditorClassIdentifier: 
  CarName: Plumpy
  CarNameString: Plumpy
  CarSkins:
  - Black
  - Orange
  AvailableType: 2
  CarModel: {fileID: 100004, guid: 37fa7510bf7d0d241a28b21644db32a4, type: 3}
